<?xml version="1.0" encoding="iso-8859-1"?>
<!-- Generator: Adobe Illustrator 19.0.0, SVG Export Plug-In . SVG Version: 6.00 Build 0)  -->
<svg xmlns="http://www.w3.org/2000/svg" xmlns:xlink="http://www.w3.org/1999/xlink" version="1.1" id="Layer_1" x="0px" y="0px" viewBox="0 0 512 512" style="enable-background:new 0 0 512 512;" xml:space="preserve" width="512px" height="512px">
<g>
	<g>
		<path d="M351.761,421.347c-14.081,0-25.536-11.455-25.536-25.536V268.13c6.717-43.662,5.034-82.898-1.083-117.028    c16.313-16.168,33.003-35.899,33.003-48.957C358.145,76.608,256,0,256,0S153.855,76.608,153.855,102.145    c0,13.058,16.69,32.788,33.003,48.957c-6.118,34.13-7.8,73.367-1.083,117.028V395.81c0,14.081-11.456,25.536-25.536,25.536h-31.92    v38.304h31.92c25.24,0,47.101-14.724,57.456-36.033v24.542c0,14.081-11.456,25.536-25.536,25.536V512    c35.202,0,63.84-28.639,63.84-63.84c0,35.202,28.639,63.84,63.84,63.84v-38.304c-14.081,0-25.536-11.456-25.536-25.536v-24.542    c10.355,21.309,32.216,36.033,57.456,36.033h31.92v-38.304H351.761z M291.758,229.827H256h-35.757    c-1.212-22.153-0.139-44.063,3.216-65.456c4.005-25.526,11.261-50.453,21.57-74.088c3.594-8.242,7.319-15.762,10.978-22.52    c3.229,5.977,6.514,12.557,9.728,19.727c10.692,23.851,18.257,49.052,22.488,74.906    C291.829,184.42,293.006,206.996,291.758,229.827z" fill="#FFFFFF"/>
	</g>
</g>
<g>
</g>
<g>
</g>
<g>
</g>
<g>
</g>
<g>
</g>
<g>
</g>
<g>
</g>
<g>
</g>
<g>
</g>
<g>
</g>
<g>
</g>
<g>
</g>
<g>
</g>
<g>
</g>
<g>
</g>
</svg>
