<?xml version="1.0" encoding="iso-8859-1"?>
<!-- Generator: Adobe Illustrator 18.1.1, SVG Export Plug-In . SVG Version: 6.00 Build 0)  -->
<svg xmlns="http://www.w3.org/2000/svg" xmlns:xlink="http://www.w3.org/1999/xlink" version="1.1" id="Capa_1" x="0px" y="0px" viewBox="0 0 43.856 43.856" style="enable-background:new 0 0 43.856 43.856;" xml:space="preserve" width="512px" height="512px">
<g>
	<path d="M21.928,0C9.837,0,0,9.837,0,21.928s9.837,21.928,21.928,21.928s21.928-9.837,21.928-21.928   S34.019,0,21.928,0z M21.928,38.856C12.594,38.856,5,31.262,5,21.928S12.594,5,21.928,5s16.928,7.594,16.928,16.928   S31.262,38.856,21.928,38.856z M22.113,8.192c-7.616,0-13.812,6.196-13.812,13.812c0,7.615,6.196,13.812,13.812,13.812   c7.615,0,13.812-6.196,13.812-13.812S29.728,8.192,22.113,8.192z M27.314,14.907c0.104,0.418,0.176,0.848,0.176,1.298   c0,2.969-2.406,5.375-5.375,5.375c-0.03,0-0.058-0.008-0.089-0.009c-2.926-0.048-5.286-2.428-5.286-5.366   c0-0.452,0.073-0.884,0.178-1.303c0.578-2.305,2.632-4.022,5.109-4.063c0.03,0,0.058-0.009,0.089-0.009   C24.634,10.83,26.731,12.569,27.314,14.907z" fill="#FFFFFF"/>
</g>
<g>
</g>
<g>
</g>
<g>
</g>
<g>
</g>
<g>
</g>
<g>
</g>
<g>
</g>
<g>
</g>
<g>
</g>
<g>
</g>
<g>
</g>
<g>
</g>
<g>
</g>
<g>
</g>
<g>
</g>
</svg>
