<?xml version="1.0" encoding="iso-8859-1"?>
<!-- Generator: Adobe Illustrator 19.0.0, SVG Export Plug-In . SVG Version: 6.00 Build 0)  -->
<svg xmlns="http://www.w3.org/2000/svg" xmlns:xlink="http://www.w3.org/1999/xlink" version="1.1" id="Capa_1" x="0px" y="0px" viewBox="0 0 511.995 511.995" style="enable-background:new 0 0 511.995 511.995;" xml:space="preserve" width="512px" height="512px">
<g>
	<g>
		<g>
			<path d="M511.487,252.737c-36.281-112.896-138.958-188.74-255.49-188.74S36.789,139.841,0.508,252.737     c-0.677,2.115-0.677,4.406,0,6.521c36.281,112.896,138.958,188.74,255.49,188.74s219.208-75.844,255.49-188.74     C512.164,257.143,512.164,254.852,511.487,252.737z M255.997,405.331c-82.344,0-149.333-66.99-149.333-149.333     s66.99-149.333,149.333-149.333s149.333,66.99,149.333,149.333S338.341,405.331,255.997,405.331z" fill="#FFFFFF"/>
			<circle cx="255.997" cy="255.997" r="85.333" fill="#FFFFFF"/>
		</g>
	</g>
</g>
<g>
</g>
<g>
</g>
<g>
</g>
<g>
</g>
<g>
</g>
<g>
</g>
<g>
</g>
<g>
</g>
<g>
</g>
<g>
</g>
<g>
</g>
<g>
</g>
<g>
</g>
<g>
</g>
<g>
</g>
</svg>
