<?xml version="1.0" encoding="UTF-8"?>
<!DOCTYPE svg PUBLIC "-//W3C//DTD SVG 1.1//EN" "http://www.w3.org/Graphics/SVG/1.1/DTD/svg11.dtd">
<!-- Creator: CorelDRAW X7 -->
<svg xmlns="http://www.w3.org/2000/svg" xml:space="preserve" width="614px" height="523px" version="1.1" style="shape-rendering:geometricPrecision; text-rendering:geometricPrecision; image-rendering:optimizeQuality; fill-rule:evenodd; clip-rule:evenodd"
viewBox="0 0 1904 1624"
 xmlns:xlink="http://www.w3.org/1999/xlink">
 <defs>
  <style type="text/css">
   <![CDATA[
    .fil0 {fill:white}
   ]]>
  </style>
 </defs>
 <g id="Layer_x0020_1">
  <metadata id="CorelCorpID_0Corel-Layer"/>
  <path class="fil0" d="M1701 783c112,-95 184,-239 179,-399 -1,-21 -4,-41 -7,-62 -20,-2 -42,-4 -63,-3 -226,8 -410,177 -443,396 0,0 0,0 0,0 -89,-109 -320,-275 -585,-391l0 0 180 -294c-417,-120 -643,161 -643,161l0 0c-51,-6 -101,-10 -149,-6 -59,0 -117,11 -170,25 136,176 212,392 220,616 5,228 -59,449 -183,631 54,12 113,17 172,17 48,-1 98,-6 147,-16l0 0c0,0 241,267 651,123l-196 -283c261,-133 478,-310 562,-426 0,0 0,0 0,0 45,216 238,376 465,368 22,1 42,-2 63,-5 2,-20 3,-42 3,-64 -5,-160 -85,-299 -203,-388l0 0zm-1592 -525c0,0 960,149 1169,521 0,0 -329,520 -1070,609 0,0 178,-31 207,-157 30,-126 -75,-161 -75,-161 0,0 156,-100 156,-247 0,-147 -197,-199 -197,-199 0,0 141,-81 141,-187 0,-124 -331,-179 -331,-179z"/>
 </g>
</svg>
