<?xml version="1.0" encoding="iso-8859-1"?>
<!-- Generator: Adobe Illustrator 18.0.0, SVG Export Plug-In . SVG Version: 6.00 Build 0)  -->
<!DOCTYPE svg PUBLIC "-//W3C//DTD SVG 1.1//EN" "http://www.w3.org/Graphics/SVG/1.1/DTD/svg11.dtd">
<svg xmlns="http://www.w3.org/2000/svg" xmlns:xlink="http://www.w3.org/1999/xlink" version="1.1" id="Capa_1" x="0px" y="0px" viewBox="0 0 60 60" style="enable-background:new 0 0 60 60;" xml:space="preserve" width="512px" height="512px">
<g>
	<path d="M37,46c0-2.206-1.794-4-4-4H20c-0.553,0-1-0.447-1-1s0.447-1,1-1h13h7c4.963,0,9-4.037,9-9s-4.037-9-9-9H19   c-0.553,0-1-0.447-1-1s0.447-1,1-1h21c4.963,0,9-4.037,9-9V6.803C43.823,2.554,37.204,0,30,0c-6.32,0-12.187,1.969-17.028,5.32   l0.583,0.727C15.284,8.543,18.052,10,21,10h21c0.553,0,1,0.447,1,1s-0.447,1-1,1H21c-4.963,0-9,4.037-9,9s4.037,9,9,9h21   c0.553,0,1,0.447,1,1s-0.447,1-1,1H21c-4.963,0-9,4.037-9,9s4.037,9,9,9h6c0.553,0,1,0.447,1,1v8.926C28.662,59.97,29.327,60,30,60   c2.411,0,4.753-0.294,7-0.833V46z" fill="#FFFFFF"/>
	<path d="M26,52h-5c-6.065,0-11-4.935-11-11c0-4.432,2.634-8.259,6.419-10C12.634,29.259,10,25.432,10,21   c0-4.434,2.637-8.263,6.424-10.003c-1.772-0.814-3.326-2.101-4.472-3.757l-0.583-0.728C4.449,12.013,0,20.494,0,30   c0,15.185,11.343,27.763,26,29.725V52z" fill="#FFFFFF"/>
	<path d="M51,8.603V11c0,4.432-2.634,8.259-6.419,10C48.366,22.741,51,26.568,51,31c0,6.065-4.935,11-11,11h-2.531   C38.42,43.063,39,44.465,39,46v12.619C51.158,54.787,60,43.407,60,30C60,21.628,56.549,14.05,51,8.603z" fill="#FFFFFF"/>
</g>
<g>
</g>
<g>
</g>
<g>
</g>
<g>
</g>
<g>
</g>
<g>
</g>
<g>
</g>
<g>
</g>
<g>
</g>
<g>
</g>
<g>
</g>
<g>
</g>
<g>
</g>
<g>
</g>
<g>
</g>
</svg>
